{
  "score": {
    "0": 125,
    "1": 14,
    "2": 13,
    "3": 11,
    "4": 6,
    "5": 8,
    "6": 9,
    "7": 7,
    "8": 10,
    "9": 11,
    "10": 9,
    "11": 19,
    "12": 7,
    "13": 9,
    "14": 14,
    "15": 20,
    "16": 13,
    "17": 22,
    "18": 23,
    "19": 20,
    "20": 13,
    "21": 17,
    "22": 28,
    "23": 15,
    "24": 15,
    "25": 34,
    "26": 16,
    "27": 22,
    "28": 14,
    "29": 36,
    "30": 21,
    "31": 23,
    "32": 21,
    "33": 26,
    "34": 30,
    "35": 39,
    "36": 29,
    "37": 39,
    "38": 21,
    "39": 38,
    "40": 21,
    "41": 28,
    "42": 31,
    "43": 31,
    "44": 42,
    "45": 38,
    "46": 44,
    "47": 39,
    "48": 43,
    "49": 33,
    "50": 40,
    "51": 42,
    "52": 35,
    "53": 42,
    "54": 58,
    "55": 41,
    "56": 43,
    "57": 45,
    "58": 37,
    "59": 39,
    "60": 36,
    "61": 35,
    "62": 24,
    "63": 48,
    "64": 34,
    "65": 57,
    "66": 34,
    "67": 25,
    "68": 35,
    "69": 26,
    "70": 41,
    "71": 28,
    "72": 31,
    "73": 28,
    "74": 26,
    "75": 26,
    "76": 21,
    "77": 12,
    "78": 17,
    "79": 11,
    "80": 14,
    "81": 13,
    "82": 21,
    "83": 13,
    "84": 14,
    "85": 13,
    "86": 13,
    "87": 7,
    "88": 10,
    "89": 7,
    "90": 8,
    "91": 7,
    "92": 4,
    "93": 4,
    "94": 9,
    "100": 92
  },
  "rank": {
    "1": 366,
    "10": 626,
    "100": 693,
    "1000": 529,
    "10000": 160,
    "-1": 109
  },
  "desc": "children count, weight 1d, 2nd grade parents"
}
