{
  "score": {
    "0": 207,
    "1": 1,
    "2": 1,
    "3": 1,
    "4": 13,
    "5": 9,
    "6": 5,
    "7": 12,
    "8": 14,
    "9": 19,
    "10": 16,
    "11": 25,
    "12": 19,
    "13": 19,
    "14": 15,
    "15": 30,
    "16": 21,
    "17": 23,
    "18": 22,
    "19": 20,
    "20": 26,
    "21": 28,
    "22": 30,
    "23": 26,
    "24": 28,
    "25": 30,
    "26": 27,
    "27": 29,
    "28": 25,
    "29": 27,
    "30": 48,
    "31": 31,
    "32": 46,
    "33": 35,
    "34": 35,
    "35": 29,
    "36": 35,
    "37": 36,
    "38": 35,
    "39": 29,
    "40": 29,
    "41": 31,
    "42": 47,
    "43": 44,
    "44": 41,
    "45": 37,
    "46": 43,
    "47": 53,
    "48": 44,
    "49": 38,
    "50": 38,
    "51": 48,
    "52": 32,
    "53": 36,
    "54": 46,
    "55": 32,
    "56": 33,
    "57": 32,
    "58": 32,
    "59": 26,
    "60": 27,
    "61": 44,
    "62": 31,
    "63": 23,
    "64": 32,
    "65": 27,
    "66": 23,
    "67": 22,
    "68": 15,
    "69": 18,
    "70": 21,
    "71": 23,
    "72": 15,
    "73": 13,
    "74": 17,
    "75": 8,
    "76": 14,
    "77": 9,
    "78": 15,
    "79": 18,
    "80": 9,
    "81": 10,
    "82": 9,
    "83": 9,
    "84": 11,
    "85": 8,
    "86": 3,
    "87": 3,
    "88": 2,
    "89": 5,
    "90": 6,
    "91": 7,
    "92": 1,
    "94": 4,
    "100": 92
  },
  "rank": {
    "1": 372,
    "10": 649,
    "100": 661,
    "1000": 514,
    "10000": 80,
    "-1": 207
  },
  "desc": "ln of children count, weight 1d, no parents"
}
