{
  "score": {
    "0": 150,
    "1": 16,
    "2": 8,
    "3": 8,
    "4": 6,
    "5": 7,
    "6": 7,
    "7": 11,
    "8": 12,
    "9": 7,
    "10": 13,
    "11": 19,
    "12": 13,
    "13": 18,
    "14": 20,
    "15": 20,
    "16": 13,
    "17": 17,
    "18": 19,
    "19": 25,
    "20": 21,
    "21": 29,
    "22": 19,
    "23": 20,
    "24": 29,
    "25": 14,
    "26": 21,
    "27": 20,
    "28": 28,
    "29": 38,
    "30": 17,
    "31": 30,
    "32": 28,
    "33": 43,
    "34": 30,
    "35": 27,
    "36": 32,
    "37": 32,
    "38": 32,
    "39": 30,
    "40": 26,
    "41": 30,
    "42": 53,
    "43": 37,
    "44": 36,
    "45": 31,
    "46": 41,
    "47": 38,
    "48": 45,
    "49": 42,
    "50": 42,
    "51": 41,
    "52": 41,
    "53": 55,
    "54": 44,
    "55": 37,
    "56": 25,
    "57": 39,
    "58": 34,
    "59": 38,
    "60": 32,
    "61": 42,
    "62": 39,
    "63": 41,
    "64": 33,
    "65": 27,
    "66": 31,
    "67": 32,
    "68": 39,
    "69": 32,
    "70": 21,
    "71": 24,
    "72": 20,
    "73": 22,
    "74": 27,
    "75": 9,
    "76": 20,
    "77": 18,
    "78": 11,
    "79": 13,
    "80": 10,
    "81": 18,
    "82": 10,
    "83": 19,
    "84": 13,
    "85": 5,
    "86": 10,
    "87": 10,
    "88": 7,
    "89": 8,
    "90": 6,
    "91": 3,
    "92": 3,
    "93": 7,
    "94": 5,
    "100": 92
  },
  "rank": {
    "1": 377,
    "10": 614,
    "100": 705,
    "1000": 522,
    "10000": 130,
    "-1": 135
  },
  "desc": "children count, weight 1d, 1st grade parents"
}
