{
  "1.1960440045219798": {
    "rank": {
      "1": 384,
      "10": 646,
      "100": 674,
      "1000": 490,
      "10000": 82,
      "-1": 207
    }
  },
  "2.5008192821823214": {
    "rank": {
      "1": 372,
      "10": 652,
      "100": 672,
      "1000": 498,
      "10000": 82,
      "-1": 207
    }
  },
  "-1.630969097075427": {
    "rank": {
      "1": 322,
      "10": 557,
      "100": 683,
      "1000": 615,
      "10000": 99,
      "-1": 207
    }
  },
  "-0.8698501851068943": {
    "rank": {
      "1": 351,
      "10": 579,
      "100": 684,
      "1000": 576,
      "10000": 86,
      "-1": 207
    }
  },
  "-2.1746254627672363": {
    "rank": {
      "1": 301,
      "10": 523,
      "100": 689,
      "1000": 650,
      "10000": 113,
      "-1": 207
    }
  },
  "2.6095505553206833": {
    "rank": {
      "1": 370,
      "10": 649,
      "100": 677,
      "1000": 499,
      "10000": 81,
      "-1": 207
    }
  },
  "-2.5008192821823214": {
    "rank": {
      "1": 286,
      "10": 507,
      "100": 698,
      "1000": 669,
      "10000": 116,
      "-1": 207
    }
  },
  "-0.2174625462767235": {
    "rank": {
      "1": 356,
      "10": 578,
      "100": 686,
      "1000": 571,
      "10000": 85,
      "-1": 207
    }
  },
  "-2.6095505553206833": {
    "rank": {
      "1": 284,
      "10": 505,
      "100": 698,
      "1000": 673,
      "10000": 116,
      "-1": 207
    }
  },
  "0.2174625462767238": {
    "rank": {
      "1": 382,
      "10": 643,
      "100": 670,
      "1000": 501,
      "10000": 80,
      "-1": 207
    }
  },
  "2.718281828459045": {
    "rank": {
      "1": 370,
      "10": 650,
      "100": 677,
      "1000": 498,
      "10000": 81,
      "-1": 207
    }
  },
  "-1.739700370213789": {
    "rank": {
      "1": 315,
      "10": 543,
      "100": 691,
      "1000": 628,
      "10000": 99,
      "-1": 207
    }
  },
  "-1.1960440045219798": {
    "rank": {
      "1": 337,
      "10": 572,
      "100": 680,
      "1000": 598,
      "10000": 89,
      "-1": 207
    }
  },
  "-0.3261938194150854": {
    "rank": {
      "1": 357,
      "10": 579,
      "100": 683,
      "1000": 572,
      "10000": 85,
      "-1": 207
    }
  },
  "2.283356735905598": {
    "rank": {
      "1": 376,
      "10": 652,
      "100": 676,
      "1000": 492,
      "10000": 80,
      "-1": 207
    }
  },
  "-0.1087312731383619": {
    "rank": {
      "1": 357,
      "10": 577,
      "100": 686,
      "1000": 571,
      "10000": 85,
      "-1": 207
    }
  },
  "-0.5436563656918089": {
    "rank": {
      "1": 356,
      "10": 579,
      "100": 685,
      "1000": 571,
      "10000": 85,
      "-1": 207
    }
  },
  "1.5222378239370653": {
    "rank": {
      "1": 380,
      "10": 651,
      "100": 677,
      "1000": 487,
      "10000": 81,
      "-1": 207
    }
  },
  "2.3920880090439596": {
    "rank": {
      "1": 373,
      "10": 653,
      "100": 673,
      "1000": 498,
      "10000": 79,
      "-1": 207
    }
  },
  "2.0658941896288745": {
    "rank": {
      "1": 377,
      "10": 648,
      "100": 679,
      "1000": 492,
      "10000": 80,
      "-1": 207
    }
  },
  "2.1746254627672363": {
    "rank": {
      "1": 375,
      "10": 655,
      "100": 676,
      "1000": 490,
      "10000": 80,
      "-1": 207
    }
  },
  "1.4135065507987035": {
    "rank": {
      "1": 378,
      "10": 651,
      "100": 677,
      "1000": 488,
      "10000": 82,
      "-1": 207
    }
  },
  "0.6523876388301708": {
    "rank": {
      "1": 382,
      "10": 646,
      "100": 668,
      "1000": 500,
      "10000": 80,
      "-1": 207
    }
  },
  "1.0873127313836177": {
    "rank": {
      "1": 385,
      "10": 639,
      "100": 674,
      "1000": 496,
      "10000": 82,
      "-1": 207
    }
  },
  "0.5436563656918089": {
    "rank": {
      "1": 383,
      "10": 643,
      "100": 670,
      "1000": 500,
      "10000": 80,
      "-1": 207
    }
  },
  "0.7611189119685327": {
    "rank": {
      "1": 382,
      "10": 648,
      "100": 667,
      "1000": 499,
      "10000": 80,
      "-1": 207
    }
  },
  "-0.9785814582452562": {
    "rank": {
      "1": 347,
      "10": 576,
      "100": 689,
      "1000": 577,
      "10000": 87,
      "-1": 207
    }
  },
  "-1.0873127313836182": {
    "rank": {
      "1": 342,
      "10": 574,
      "100": 684,
      "1000": 588,
      "10000": 88,
      "-1": 207
    }
  },
  "-2.2833567359055977": {
    "rank": {
      "1": 297,
      "10": 525,
      "100": 683,
      "1000": 656,
      "10000": 115,
      "-1": 207
    }
  },
  "-1.3047752776603416": {
    "rank": {
      "1": 334,
      "10": 568,
      "100": 675,
      "1000": 607,
      "10000": 92,
      "-1": 207
    }
  },
  "-0.6523876388301708": {
    "rank": {
      "1": 356,
      "10": 577,
      "100": 690,
      "1000": 568,
      "10000": 85,
      "-1": 207
    }
  },
  "0.9785814582452566": {
    "rank": {
      "1": 383,
      "10": 639,
      "100": 674,
      "1000": 500,
      "10000": 80,
      "-1": 207
    }
  },
  "-2.718281828459045": {
    "rank": {
      "1": 282,
      "10": 491,
      "100": 694,
      "1000": 692,
      "10000": 117,
      "-1": 207
    }
  },
  "1.3047752776603416": {
    "rank": {
      "1": 380,
      "10": 647,
      "100": 679,
      "1000": 487,
      "10000": 83,
      "-1": 207
    }
  },
  "1.8484316433521506": {
    "rank": {
      "1": 381,
      "10": 649,
      "100": 673,
      "1000": 494,
      "10000": 79,
      "-1": 207
    }
  },
  "-0.7611189119685327": {
    "rank": {
      "1": 354,
      "10": 575,
      "100": 689,
      "1000": 573,
      "10000": 85,
      "-1": 207
    }
  },
  "-1.4135065507987035": {
    "rank": {
      "1": 331,
      "10": 566,
      "100": 669,
      "1000": 615,
      "10000": 95,
      "-1": 207
    }
  },
  "-1.8484316433521506": {
    "rank": {
      "1": 312,
      "10": 535,
      "100": 697,
      "1000": 632,
      "10000": 100,
      "-1": 207
    }
  },
  "0.434925092553447": {
    "rank": {
      "1": 382,
      "10": 643,
      "100": 670,
      "1000": 501,
      "10000": 80,
      "-1": 207
    }
  },
  "-0.4349250925534473": {
    "rank": {
      "1": 357,
      "10": 580,
      "100": 684,
      "1000": 570,
      "10000": 85,
      "-1": 207
    }
  },
  "-2.0658941896288745": {
    "rank": {
      "1": 304,
      "10": 530,
      "100": 682,
      "1000": 648,
      "10000": 112,
      "-1": 207
    }
  },
  "0.3261938194150857": {
    "rank": {
      "1": 383,
      "10": 644,
      "100": 668,
      "1000": 501,
      "10000": 80,
      "-1": 207
    }
  },
  "-1.9571629164905124": {
    "rank": {
      "1": 309,
      "10": 527,
      "100": 696,
      "1000": 642,
      "10000": 102,
      "-1": 207
    }
  },
  "-1.5222378239370653": {
    "rank": {
      "1": 324,
      "10": 557,
      "100": 689,
      "1000": 608,
      "10000": 98,
      "-1": 207
    }
  },
  "-2.3920880090439596": {
    "rank": {
      "1": 295,
      "10": 515,
      "100": 685,
      "1000": 666,
      "10000": 115,
      "-1": 207
    }
  },
  "1.9571629164905124": {
    "rank": {
      "1": 379,
      "10": 650,
      "100": 678,
      "1000": 490,
      "10000": 79,
      "-1": 207
    }
  },
  "0.0": {
    "rank": {
      "1": 355,
      "10": 605,
      "100": 699,
      "1000": 548,
      "10000": 69,
      "-1": 207
    }
  },
  "0.8698501851068946": {
    "rank": {
      "1": 382,
      "10": 646,
      "100": 669,
      "1000": 499,
      "10000": 80,
      "-1": 207
    }
  },
  "0.1087312731383619": {
    "rank": {
      "1": 382,
      "10": 641,
      "100": 672,
      "1000": 501,
      "10000": 80,
      "-1": 207
    }
  },
  "1.6309690970754274": {
    "rank": {
      "1": 379,
      "10": 654,
      "100": 673,
      "1000": 490,
      "10000": 80,
      "-1": 207
    }
  },
  "1.7397003702137885": {
    "rank": {
      "1": 377,
      "10": 652,
      "100": 677,
      "1000": 490,
      "10000": 80,
      "-1": 207
    }
  }
}
