{
  "score": {
    "0": 99,
    "1": 2,
    "3": 3,
    "4": 5,
    "5": 5,
    "6": 16,
    "7": 2,
    "8": 5,
    "9": 4,
    "10": 7,
    "11": 11,
    "12": 8,
    "13": 13,
    "14": 4,
    "15": 6,
    "16": 12,
    "17": 8,
    "18": 18,
    "19": 7,
    "20": 18,
    "21": 14,
    "22": 11,
    "23": 9,
    "24": 15,
    "25": 27,
    "26": 22,
    "27": 20,
    "28": 16,
    "29": 20,
    "30": 23,
    "31": 21,
    "32": 24,
    "33": 26,
    "34": 20,
    "35": 32,
    "36": 20,
    "37": 22,
    "38": 21,
    "39": 17,
    "40": 47,
    "41": 25,
    "42": 31,
    "43": 46,
    "44": 34,
    "45": 35,
    "46": 35,
    "47": 29,
    "48": 46,
    "49": 23,
    "50": 51,
    "51": 48,
    "52": 37,
    "53": 49,
    "54": 48,
    "55": 52,
    "56": 47,
    "57": 40,
    "58": 44,
    "59": 31,
    "60": 57,
    "61": 50,
    "62": 33,
    "63": 48,
    "64": 51,
    "65": 34,
    "66": 57,
    "67": 31,
    "68": 46,
    "69": 27,
    "70": 51,
    "71": 26,
    "72": 37,
    "73": 52,
    "74": 32,
    "75": 27,
    "76": 23,
    "77": 27,
    "78": 20,
    "79": 17,
    "80": 22,
    "81": 29,
    "82": 22,
    "83": 21,
    "84": 27,
    "85": 10,
    "86": 22,
    "87": 3,
    "88": 8,
    "89": 16,
    "90": 2,
    "91": 10,
    "92": 11,
    "93": 5,
    "94": 3,
    "95": 3,
    "100": 92
  },
  "rank": {
    "1": 343,
    "10": 608,
    "100": 693,
    "1000": 565,
    "10000": 179,
    "-1": 95
  },
  "desc": "Plain, weight 1d, 2nd grade parents"
}
